{
  "openapi": "3.0.3",
  "info": {
    "title": "Bina chapter 8",
    "description": "Tugas chapter 8 dokumentasi api dengan swagger",
    "version": "1.0.11"
  },
  "servers": [
    {
      "url": "http://localhost:4000/api/v1/"
    }
  ],
  "tags": [
    {
      "name": "players",
      "description": "Api chapter 8 player"
    }
  ],
  "paths": {
    "/players": {
      "get": {
        "tags": ["players"],
        "summary": "Get list players",
        "description": "Api to get list players",
        "operationId": "getPlayers",
        "parameters": [
          {
            "name": "username",
            "in": "query",
            "description": "parameter username",
            "schema": {
              "type": "string",
              "example": "user"
            }
          },
          {
            "name": "email",
            "in": "query",
            "description": "parameter email",
            "schema": {
              "type": "string",
              "example": "user@email.com"
            }
          },
          {
            "name": "password",
            "in": "query",
            "description": "parameter password",
            "schema": {
              "type": "string"
            }
          },
          {
            "name": "experience",
            "in": "query",
            "description": "parameter experience",
            "schema": {
              "type": "string"
            }
          }
        ],
        "responses": {
          "200": {
            "description": "Success",
            "content": {
              "application/json": {
                "schema": {
                  "type": "array",
                  "$ref": "#/components/schemas/Players"
                }
              },
              "application/xml": {
                "schema": {
                  "$ref": "#/components/schemas/Players"
                }
              }
            }
          }
        }
      },
      "post": {
        "tags": ["players"],
        "summary": "Add a new player",
        "description": "Add a new players",
        "operationId": "createPlayer",
        "requestBody": {
          "description": "Create a new pet in the store",
          "content": {
            "application/json": {
              "schema": {
                "$ref": "#/components/schemas/Players"
              }
            },
            "application/xml": {
              "schema": {
                "$ref": "#/components/schemas/Players"
              }
            },
            "application/x-www-form-urlencoded": {
              "schema": {
                "$ref": "#/components/schemas/Players"
              }
            }
          },
          "required": true
        },
        "parameters": [
          {
            "name": "username",
            "in": "query",
            "description": "parameter username",
            "required": true,
            "schema": {
              "type": "string",
              "example": "user"
            }
          },
          {
            "name": "email",
            "in": "query",
            "description": "parameter email",
            "required": true,
            "schema": {
              "type": "string",
              "example": "user@email.com"
            }
          },
          {
            "name": "password",
            "in": "query",
            "description": "parameter password",
            "required": true,
            "schema": {
              "type": "string",
              "example": "123"
            }
          },
          {
            "name": "experience",
            "in": "query",
            "description": "parameter experience",
            "required": true,
            "schema": {
              "type": "integer",
              "example": 100
            }
          }
        ],
        "responses": {
          "200": {
            "description": "Success",
            "content": {
              "application/json": {
                "schema": {
                  "$ref": "#/components/schemas/Players"
                }
              },
              "application/xml": {
                "schema": {
                  "$ref": "#/components/schemas/Players"
                }
              }
            }
          },
          "400": {
            "description": "username or email cannot empty | password cannot be empty"
          }
        }
      }
    },
    "/players/{id}": {
      "get": {
        "tags": ["players"],
        "summary": "Get user by id",
        "description": "",
        "operationId": "getPlayerById",
        "responses": {
          "200": {
            "description": "successful operation",
            "content": {
              "application/json": {
                "schema": {
                  "$ref": "#/components/schemas/Players"
                }
              },
              "application/xml": {
                "schema": {
                  "$ref": "#/components/schemas/Players"
                }
              }
            }
          },
          "400": {
            "description": "Not found, Player with ${id} not found"
          }
        }
      },
      "put": {
        "tags": ["players"],
        "summary": "update user",
        "description": "",
        "operationId": "updatePlayer",
        "requestBody": {
          "description": "Update an existent user in the store",
          "content": {
            "application/json": {
              "schema": {
                "$ref": "#/components/schemas/Players"
              }
            },
            "application/xml": {
              "schema": {
                "$ref": "#/components/schemas/Players"
              }
            },
            "application/x-www-form-urlencoded": {
              "schema": {
                "$ref": "#/components/schemas/Players"
              }
            }
          }
        },
        "responses": {
          "200": {
            "description": "Player with id: ${id} successfully updated"
          },
          "400": {
            "description": "Failed to update"
          }
        }
      },
      "delete": {
        "tags": ["players"],
        "summary": "delete user",
        "description": "",
        "operationId": "deletePlayer",
        "responses": {
          "200": {
            "description": "Player with id: 1, was deleted successfully"
          },
          "400": {
            "description": "Cannot delete Player with id=${id}. Maybe Player was not found!"
          }
        }
      }
    },
    "/players/exp/{id}": {
      "post": {
        "tags": ["players"],
        "summary": "experience",
        "description": "",
        "operationId": "updateExperience",
        "requestBody": {
          "description": "Create a new pet in the store",
          "content": {
            "application/json": {
              "schema": {
                "$ref": "#/components/schemas/Exp"
              }
            },
            "application/xml": {
              "schema": {
                "$ref": "#/components/schemas/Exp"
              }
            },
            "application/x-www-form-urlencoded": {
              "schema": {
                "$ref": "#/components/schemas/Exp"
              }
            }
          },
          "required": true
        },
        "responses": {
          "200": {
            "description": "Player with id = 3 gain 400 experience. Total experience = 10000"
          },
          "400": {
            "description": "Player with 1 not found"
          }
        }
      }
    }
  },
  "components": {
    "schemas": {
      "Exp": {
        "type": "object",
        "properties": {
          "exp": {
            "type": "integer",
            "example": 100
          }
        }
      },

      "Players": {
        "type": "object",
        "properties": {
          "id": {
            "type": "integer",
            "example": 1
          },
          "username": {
            "type": "string",
            "example": "user"
          },
          "email": {
            "type": "string",
            "example": "user@email.com"
          },
          "password": {
            "type": "string",
            "example": "*********"
          },
          "experience": {
            "type": "integer",
            "example": 0
          },
          "lvl": {
            "type": "integer",
            "example": 600
          },
          "createdAt": {
            "type": "string",
            "example": "2022-11-03T13:46:40.643Z"
          },
          "updatedAt": {
            "type": "string",
            "example": "2022-11-05T12:01:00.213Z"
          }
        }
      }
    }
  }
}
